%YAML 1.1
%TAG !u! tag:unity3d.com,2011:
--- !u!74 &7400000
AnimationClip:
  m_ObjectHideFlags: 0
  m_CorrespondingSourceObject: {fileID: 0}
  m_PrefabInstance: {fileID: 0}
  m_PrefabAsset: {fileID: 0}
  m_Name: Slide_Pj
  serializedVersion: 6
  m_Legacy: 0
  m_Compressed: 0
  m_UseHighQualityCurve: 1
  m_RotationCurves: []
  m_CompressedRotationCurves: []
  m_EulerCurves: []
  m_PositionCurves: []
  m_ScaleCurves: []
  m_FloatCurves: []
  m_PPtrCurves:
  - curve:
    - time: 0
      value: {fileID: 21300000, guid: 4336c00dbcad5b84e8c2e16def11a15d, type: 3}
    - time: 0.083333336
      value: {fileID: 21300000, guid: 0cae37017834f324cb3167bcea8672a6, type: 3}
    - time: 0.16666667
      value: {fileID: 21300000, guid: 70ec35dbb0ec40d468f46abffe7769fe, type: 3}
    - time: 0.25
      value: {fileID: 21300000, guid: 6490c91b173673448a8884cfb636aa63, type: 3}
    - time: 0.33333334
      value: {fileID: 21300000, guid: 0c4a4d3a16e850b438836e6bdde898e0, type: 3}
    - time: 0.41666666
      value: {fileID: 21300000, guid: 0695431f27966864d8145b33430bbbc4, type: 3}
    - time: 0.5
      value: {fileID: 21300000, guid: 92641d4c36259ba45bb4ea6efc1fa01f, type: 3}
    - time: 0.5833333
      value: {fileID: 21300000, guid: 1ac1952e26854a244bd449a6089628eb, type: 3}
    - time: 0.6666667
      value: {fileID: 21300000, guid: d4494d098de84664fa43088e5b72317c, type: 3}
    - time: 0.75
      value: {fileID: 21300000, guid: a6c08eb85e866a24b967a23ab503dda2, type: 3}
    attribute: m_Sprite
    path: 
    classID: 212
    script: {fileID: 0}
  m_SampleRate: 12
  m_WrapMode: 0
  m_Bounds:
    m_Center: {x: 0, y: 0, z: 0}
    m_Extent: {x: 0, y: 0, z: 0}
  m_ClipBindingConstant:
    genericBindings:
    - serializedVersion: 2
      path: 0
      attribute: 0
      script: {fileID: 0}
      typeID: 212
      customType: 23
      isPPtrCurve: 1
    pptrCurveMapping:
    - {fileID: 21300000, guid: 4336c00dbcad5b84e8c2e16def11a15d, type: 3}
    - {fileID: 21300000, guid: 0cae37017834f324cb3167bcea8672a6, type: 3}
    - {fileID: 21300000, guid: 70ec35dbb0ec40d468f46abffe7769fe, type: 3}
    - {fileID: 21300000, guid: 6490c91b173673448a8884cfb636aa63, type: 3}
    - {fileID: 21300000, guid: 0c4a4d3a16e850b438836e6bdde898e0, type: 3}
    - {fileID: 21300000, guid: 0695431f27966864d8145b33430bbbc4, type: 3}
    - {fileID: 21300000, guid: 92641d4c36259ba45bb4ea6efc1fa01f, type: 3}
    - {fileID: 21300000, guid: 1ac1952e26854a244bd449a6089628eb, type: 3}
    - {fileID: 21300000, guid: d4494d098de84664fa43088e5b72317c, type: 3}
    - {fileID: 21300000, guid: a6c08eb85e866a24b967a23ab503dda2, type: 3}
  m_AnimationClipSettings:
    serializedVersion: 2
    m_AdditiveReferencePoseClip: {fileID: 0}
    m_AdditiveReferencePoseTime: 0
    m_StartTime: 0
    m_StopTime: 0.8333333
    m_OrientationOffsetY: 0
    m_Level: 0
    m_CycleOffset: 0
    m_HasAdditiveReferencePose: 0
    m_LoopTime: 1
    m_LoopBlend: 0
    m_LoopBlendOrientation: 0
    m_LoopBlendPositionY: 0
    m_LoopBlendPositionXZ: 0
    m_KeepOriginalOrientation: 0
    m_KeepOriginalPositionY: 1
    m_KeepOriginalPositionXZ: 0
    m_HeightFromFeet: 0
    m_Mirror: 0
  m_EditorCurves: []
  m_EulerEditorCurves: []
  m_HasGenericRootTransform: 0
  m_HasMotionFloatCurves: 0
  m_Events: []
