%YAML 1.1
%TAG !u! tag:unity3d.com,2011:
--- !u!74 &7400000
AnimationClip:
  m_ObjectHideFlags: 0
  m_CorrespondingSourceObject: {fileID: 0}
  m_PrefabInstance: {fileID: 0}
  m_PrefabAsset: {fileID: 0}
  m_Name: Zombie_walk_M
  serializedVersion: 6
  m_Legacy: 0
  m_Compressed: 0
  m_UseHighQualityCurve: 1
  m_RotationCurves: []
  m_CompressedRotationCurves: []
  m_EulerCurves: []
  m_PositionCurves: []
  m_ScaleCurves: []
  m_FloatCurves: []
  m_PPtrCurves:
  - curve:
    - time: 0
      value: {fileID: 21300000, guid: c607e20684760304184bc7309a59b426, type: 3}
    - time: 0.083333336
      value: {fileID: 21300000, guid: 2c308b8382d9c3243a8a4eacd75a1339, type: 3}
    - time: 0.16666667
      value: {fileID: 21300000, guid: 7a11498ff9b0a804894825d9aac7a832, type: 3}
    - time: 0.25
      value: {fileID: 21300000, guid: a5449b9c7c2c33b46bb77a1c8d0ab9d2, type: 3}
    - time: 0.33333334
      value: {fileID: 21300000, guid: 808b09e5857fdf44198bce1ba18e4279, type: 3}
    - time: 0.41666666
      value: {fileID: 21300000, guid: 345139e73bc12bc4c8e0e8b8e28f9b7d, type: 3}
    - time: 0.5
      value: {fileID: 21300000, guid: ff1e96b00f40b9e4f802cde336bb373d, type: 3}
    - time: 0.5833333
      value: {fileID: 21300000, guid: 49ec427f62d760a4fa5b6d7685ee4d4f, type: 3}
    - time: 0.6666667
      value: {fileID: 21300000, guid: 140824ca147adfd419843499eb92d374, type: 3}
    - time: 0.75
      value: {fileID: 21300000, guid: 68d0cf61a5a4b2a4d880e06801a1177c, type: 3}
    attribute: m_Sprite
    path: 
    classID: 212
    script: {fileID: 0}
  m_SampleRate: 12
  m_WrapMode: 0
  m_Bounds:
    m_Center: {x: 0, y: 0, z: 0}
    m_Extent: {x: 0, y: 0, z: 0}
  m_ClipBindingConstant:
    genericBindings:
    - serializedVersion: 2
      path: 0
      attribute: 0
      script: {fileID: 0}
      typeID: 212
      customType: 23
      isPPtrCurve: 1
    pptrCurveMapping:
    - {fileID: 21300000, guid: c607e20684760304184bc7309a59b426, type: 3}
    - {fileID: 21300000, guid: 2c308b8382d9c3243a8a4eacd75a1339, type: 3}
    - {fileID: 21300000, guid: 7a11498ff9b0a804894825d9aac7a832, type: 3}
    - {fileID: 21300000, guid: a5449b9c7c2c33b46bb77a1c8d0ab9d2, type: 3}
    - {fileID: 21300000, guid: 808b09e5857fdf44198bce1ba18e4279, type: 3}
    - {fileID: 21300000, guid: 345139e73bc12bc4c8e0e8b8e28f9b7d, type: 3}
    - {fileID: 21300000, guid: ff1e96b00f40b9e4f802cde336bb373d, type: 3}
    - {fileID: 21300000, guid: 49ec427f62d760a4fa5b6d7685ee4d4f, type: 3}
    - {fileID: 21300000, guid: 140824ca147adfd419843499eb92d374, type: 3}
    - {fileID: 21300000, guid: 68d0cf61a5a4b2a4d880e06801a1177c, type: 3}
  m_AnimationClipSettings:
    serializedVersion: 2
    m_AdditiveReferencePoseClip: {fileID: 0}
    m_AdditiveReferencePoseTime: 0
    m_StartTime: 0
    m_StopTime: 0.8333333
    m_OrientationOffsetY: 0
    m_Level: 0
    m_CycleOffset: 0
    m_HasAdditiveReferencePose: 0
    m_LoopTime: 1
    m_LoopBlend: 0
    m_LoopBlendOrientation: 0
    m_LoopBlendPositionY: 0
    m_LoopBlendPositionXZ: 0
    m_KeepOriginalOrientation: 0
    m_KeepOriginalPositionY: 1
    m_KeepOriginalPositionXZ: 0
    m_HeightFromFeet: 0
    m_Mirror: 0
  m_EditorCurves: []
  m_EulerEditorCurves: []
  m_HasGenericRootTransform: 0
  m_HasMotionFloatCurves: 0
  m_Events: []
